<?xml version="1.0" encoding="UTF-8" standalone="no"?>
<svg width="51px" height="21px" viewBox="0 0 51 21" version="1.1" xmlns="http://www.w3.org/2000/svg" xmlns:xlink="http://www.w3.org/1999/xlink">
    <!-- Generator: sketchtool 45.2 (43514) - http://www.bohemiancoding.com/sketch -->
    <title>E5E889EB-13C1-40AE-BCF3-454D7D476381</title>
    <desc>Created with sketchtool.</desc>
    <defs></defs>
    <g id="Symbols" stroke="none" stroke-width="1" fill="none" fill-rule="evenodd">
        <g id="icons/arrow-down-large" fill="#000000">
            <polygon id="Page-1" points="50 -0.0003 25.456 18.8137 0.912 -0.0003 0 1.1907 25.456 20.7037 50.912 1.1907"></polygon>
        </g>
    </g>
</svg>