<?xml version="1.0" encoding="UTF-8" standalone="no"?>
<svg width="20px" height="18px" viewBox="0 0 20 18" version="1.1" xmlns="http://www.w3.org/2000/svg" xmlns:xlink="http://www.w3.org/1999/xlink">
    <!-- Generator: sketchtool 45.2 (43514) - http://www.bohemiancoding.com/sketch -->
    <title>1CEDA88A-8F9F-4B69-BE81-E87922A1D79F</title>
    <desc>Created with sketchtool.</desc>
    <defs></defs>
    <g id="Symbols" stroke="none" stroke-width="1" fill="none" fill-rule="evenodd">
        <g id="icons/upload" fill="#000000">
            <path d="M10.011,0 L6.234,5.5 L9.269,5.5 L9.269,12.391 L10.77,12.391 L10.77,5.5 L13.788,5.5 L10.011,0 Z M18.505,13.424 L18.505,16.356 L1.501,16.356 L1.501,13.424 L0,13.424 L0,17.856 L20.005,17.856 L20.005,13.424 L18.505,13.424 Z" id="Page-1"></path>
        </g>
    </g>
</svg>