<?xml version="1.0" encoding="UTF-8" standalone="no"?>
<svg width="23px" height="22px" viewBox="0 0 23 22" version="1.1" xmlns="http://www.w3.org/2000/svg" xmlns:xlink="http://www.w3.org/1999/xlink">
    <!-- Generator: sketchtool 45.2 (43514) - http://www.bohemiancoding.com/sketch -->
    <title>DD9FD50F-2B5A-4E25-87DC-078C845CBE5C</title>
    <desc>Created with sketchtool.</desc>
    <defs></defs>
    <g id="Symbols" stroke="none" stroke-width="1" fill="none" fill-rule="evenodd">
        <g id="icons/hamburger/black" fill="#000000">
            <path d="M0,1.499 L22.989,1.499 L22.989,0 L0,0 L0,1.499 Z M0,11.375 L22.989,11.375 L22.989,9.875 L0,9.875 L0,11.375 Z M0,21.25 L22.989,21.25 L22.989,19.75 L0,19.75 L0,21.25 Z" id="Page-1"></path>
        </g>
    </g>
</svg>