<svg xmlns="http://www.w3.org/2000/svg" width="26" height="26" viewBox="0 0 26 26">
    <path fill="#000" fill-rule="nonzero" d="M25.84 5.39c-.876.4-1.832.638-2.868.798a5.183 5.183 0 0 0 2.231-2.79c-.956.558-2.072.957-3.187 1.196C21.059 3.637 19.784 3 18.35 3c-2.869 0-5.1 2.231-5.1 5.02 0 .399.08.797.16 1.116-4.224-.16-7.89-2.152-10.44-5.18-.398.717-.717 1.594-.717 2.55 0 1.753.877 3.267 2.231 4.224-.796 0-1.593-.24-2.31-.638v.08c0 2.47 1.753 4.462 4.064 4.94-.399.08-.877.16-1.355.16-.319 0-.638 0-.956-.08.637 1.992 2.47 3.427 4.701 3.506-1.753 1.355-3.905 2.152-6.215 2.152-.399 0-.797 0-1.196-.08 2.311 1.355 4.94 2.152 7.81 2.152 9.243 0 14.343-7.65 14.343-14.344v-.637a15.013 15.013 0 0 0 2.47-2.55z"/>
</svg>
