<?xml version="1.0" encoding="UTF-8" standalone="no"?>
<svg width="36px" height="32px" viewBox="0 0 36 32" version="1.1" xmlns="http://www.w3.org/2000/svg" xmlns:xlink="http://www.w3.org/1999/xlink">
    <!-- Generator: sketchtool 45.2 (43514) - http://www.bohemiancoding.com/sketch -->
    <title>E6EDCA05-928B-4070-A161-8D0C09AAFC97</title>
    <desc>Created with sketchtool.</desc>
    <defs></defs>
    <g id="Symbols" stroke="none" stroke-width="1" fill="none" fill-rule="evenodd">
        <g id="icons/mute" fill="#000000">
            <path d="M20.141,-0.0009 L9.404,9.0841 L0,9.0841 L0,22.4181 L9.404,22.4181 L20.141,31.5041 L20.141,-0.0009 Z M30.08,14.2951 L25.307,9.5221 L24.246,10.5831 L29.019,15.3561 L24.246,20.1281 L25.306,21.1901 L30.08,16.4161 L34.852,21.1901 L35.914,20.1281 L31.141,15.3551 L35.914,10.5821 L34.852,9.5221 L30.08,14.2951 Z" id="Page-1"></path>
        </g>
    </g>
</svg>