<?xml version="1.0" encoding="UTF-8" standalone="no"?>
<svg width="20px" height="19px" viewBox="0 0 20 19" version="1.1" xmlns="http://www.w3.org/2000/svg" xmlns:xlink="http://www.w3.org/1999/xlink">
    <!-- Generator: sketchtool 45.2 (43514) - http://www.bohemiancoding.com/sketch -->
    <title>1E4C0383-572D-43FC-AFC9-37EAEC78CD8A</title>
    <desc>Created with sketchtool.</desc>
    <defs>
        <polygon id="path-1" points="0.0004 18.8626 19.974 18.8626 19.974 -0.0001 0.0004 -0.0001"></polygon>
    </defs>
    <g id="Symbols" stroke="none" stroke-width="1" fill="none" fill-rule="evenodd">
        <g id="icons/edit">
            <g id="Page-1">
                <mask id="mask-2" fill="white">
                    <use xlink:href="#path-1"></use>
                </mask>
                <g id="Clip-2"></g>
                <path d="M18.7544,4.5089 L19.7074,3.5509 C20.0634,3.1969 20.0634,2.6199 19.7074,2.2649 L17.7094,0.2669 C17.3544,-0.0891 16.7774,-0.0891 16.4224,0.2669 L15.4674,1.2229 L18.7544,4.5089 Z M10.7134,10.7409 L9.3244,9.3639 L8.4124,9.4419 L7.6824,11.6469 L8.3484,12.3049 L10.5754,11.5829 L10.7134,10.7409 Z M17.3504,5.9189 L10.9794,12.3159 L6.0214,13.9679 L7.6634,9.0409 L14.0634,2.6309 L17.3504,5.9189 Z M16.8404,18.8629 L0.0004,18.8629 L0.0004,2.0239 L10.2494,2.0239 L10.2494,3.5239 L1.5004,3.5239 L1.5004,17.3629 L15.3404,17.3629 L15.3404,10.6659 L16.8404,10.6659 L16.8404,18.8629 Z" id="Fill-1" fill="#000000" mask="url(#mask-2)"></path>
            </g>
        </g>
    </g>
</svg>