<?xml version="1.0" encoding="UTF-8" standalone="no"?>
<svg width="20px" height="18px" viewBox="0 0 20 18" version="1.1" xmlns="http://www.w3.org/2000/svg" xmlns:xlink="http://www.w3.org/1999/xlink">
    <!-- Generator: sketchtool 45.2 (43514) - http://www.bohemiancoding.com/sketch -->
    <title>D470CD5C-0EB9-4449-AC05-CB22E2EE14D4</title>
    <desc>Created with sketchtool.</desc>
    <defs></defs>
    <g id="Symbols" stroke="none" stroke-width="1" fill="none" fill-rule="evenodd">
        <g id="icons/download" fill="#000000">
            <path d="M9.252,0 L9.252,6.891 L6.233,6.891 L10.011,12.391 L13.788,6.891 L10.752,6.891 L10.752,0 L9.252,0 Z M18.504,13.424 L18.504,16.356 L1.5,16.356 L1.5,13.424 L0,13.424 L0,17.856 L20.004,17.856 L20.004,13.424 L18.504,13.424 Z" id="Page-1"></path>
        </g>
    </g>
</svg>