<?xml version="1.0" encoding="UTF-8" standalone="no"?>
<svg width="20px" height="20px" viewBox="0 0 20 20" version="1.1" xmlns="http://www.w3.org/2000/svg" xmlns:xlink="http://www.w3.org/1999/xlink">
    <!-- Generator: sketchtool 45.2 (43514) - http://www.bohemiancoding.com/sketch -->
    <title>F4E0D19A-C90F-425D-8F9E-C2AC403AA49E</title>
    <desc>Created with sketchtool.</desc>
    <defs>
        <polygon id="path-1" points="19.9998 0 0 0 0 19.9996 19.9998 19.9996 19.9998 3.55271368e-15"></polygon>
    </defs>
    <g id="Symbols" stroke="none" stroke-width="1" fill="none" fill-rule="evenodd">
        <g id="icons/help">
            <g id="Page-1">
                <mask id="mask-2" fill="white">
                    <use xlink:href="#path-1"></use>
                </mask>
                <g id="Clip-2"></g>
                <path d="M9.9868,13.1756 C10.5818,13.1756 11.0728,13.6816 11.0728,14.2766 C11.0728,14.8716 10.5818,15.3626 9.9868,15.3626 C9.3768,15.3626 8.9008,14.8716 8.9008,14.2766 C8.9008,13.6816 9.3768,13.1756 9.9868,13.1756 L9.9868,13.1756 Z M9.2278,12.1346 C9.2128,11.9406 9.1978,11.7776 9.1978,11.5696 C9.1978,10.6766 9.5408,9.9476 10.4028,9.3226 L11.0878,8.8316 C11.5788,8.4746 11.7868,8.0436 11.7868,7.5376 C11.7868,6.7636 11.2658,6.0346 10.1798,6.0346 C9.0788,6.0346 8.4988,6.8826 8.4988,7.7306 C8.4988,7.9536 8.5288,8.2366 8.5888,8.4006 L6.9068,8.2806 C6.8468,8.0726 6.8178,7.8346 6.8178,7.5966 C6.8178,6.1096 7.9328,4.4876 10.1798,4.4876 C12.3818,4.4876 13.5718,5.9456 13.5718,7.4626 C13.5718,8.6376 12.9468,9.4716 12.0848,10.0816 L11.4448,10.5276 C10.9538,10.8696 10.7008,11.3606 10.7008,11.9406 C10.7008,11.9706 10.7008,12.0456 10.7158,12.1346 L9.2278,12.1346 Z M9.9998,-0.0004 C4.4768,-0.0004 -0.0002,4.4766 -0.0002,9.9996 C-0.0002,15.5226 4.4768,19.9996 9.9998,19.9996 C15.5228,19.9996 19.9998,15.5226 19.9998,9.9996 C19.9998,4.4766 15.5228,-0.0004 9.9998,-0.0004 L9.9998,-0.0004 Z M9.9998,1.4996 C14.6868,1.4996 18.4998,5.3136 18.4998,9.9996 C18.4998,14.6866 14.6868,18.4996 9.9998,18.4996 C5.3128,18.4996 1.4998,14.6866 1.4998,9.9996 C1.4998,5.3136 5.3128,1.4996 9.9998,1.4996 L9.9998,1.4996 Z" id="Fill-1" fill="#000000" mask="url(#mask-2)"></path>
            </g>
        </g>
    </g>
</svg>