<?xml version="1.0" encoding="UTF-8" standalone="no"?>
<svg width="12px" height="12px" viewBox="0 0 12 12" version="1.1" xmlns="http://www.w3.org/2000/svg" xmlns:xlink="http://www.w3.org/1999/xlink">
    <!-- Generator: sketchtool 45.2 (43514) - http://www.bohemiancoding.com/sketch -->
    <title>67974B09-8364-4217-AC27-F42490B8F789</title>
    <desc>Created with sketchtool.</desc>
    <defs></defs>
    <g id="Symbols" stroke="none" stroke-width="1" fill="none" fill-rule="evenodd">
        <g id="icons/calendar" fill="#000000">
            <path d="M7.119,0 L7.119,0.499 L7.119,1.892 L4.304,1.892 L4.304,0.513 L4.304,0.013 L3.804,0.013 L2.092,0.013 L1.593,0.013 L1.593,0.513 L1.593,1.892 L0,1.892 L0,11.634 L0.971,11.634 L0.971,11.647 L10.742,11.647 L10.742,11.634 L11.635,11.634 L11.635,1.892 L9.831,1.892 L9.831,0.499 L9.831,0 L7.119,0 Z M7.618,3.244 L9.33,3.244 L9.33,0.499 L7.618,0.499 L7.618,3.244 Z M2.119,3.244 L3.831,3.244 L3.831,0.499 L2.119,0.499 L2.119,3.244 Z M8.698,6.324 L11.135,6.324 L11.135,4.538 L8.698,4.538 L8.698,6.324 Z M5.947,6.324 L8.197,6.324 L8.197,4.538 L5.947,4.538 L5.947,6.324 Z M3.198,6.324 L5.448,6.324 L5.448,4.538 L3.198,4.538 L3.198,6.324 Z M0.5,6.324 L2.697,6.324 L2.697,4.538 L0.5,4.538 L0.5,6.324 Z M8.698,8.719 L11.135,8.719 L11.135,6.824 L8.698,6.824 L8.698,8.719 Z M5.947,8.719 L8.197,8.719 L8.197,6.824 L5.947,6.824 L5.947,8.719 Z M3.198,8.719 L5.448,8.719 L5.448,6.824 L3.198,6.824 L3.198,8.719 Z M0.5,8.719 L2.697,8.719 L2.697,6.824 L0.5,6.824 L0.5,8.719 Z M8.698,11.116 L11.135,11.116 L11.135,9.22 L8.698,9.22 L8.698,11.116 Z M5.947,11.116 L8.197,11.116 L8.197,9.22 L5.947,9.22 L5.947,11.116 Z M3.198,11.116 L5.448,11.116 L5.448,9.22 L3.198,9.22 L3.198,11.116 Z M0.5,11.116 L2.697,11.116 L2.697,9.22 L0.5,9.22 L0.5,11.116 Z" id="Page-1"></path>
        </g>
    </g>
</svg>