<?xml version="1.0" encoding="UTF-8" standalone="no"?>
<svg width="14px" height="14px" viewBox="0 0 14 14" version="1.1" xmlns="http://www.w3.org/2000/svg" xmlns:xlink="http://www.w3.org/1999/xlink">
    <!-- Generator: sketchtool 45.2 (43514) - http://www.bohemiancoding.com/sketch -->
    <title>C4480C3B-BF76-4882-9D2F-7F2E1C3A09B7</title>
    <desc>Created with sketchtool.</desc>
    <defs></defs>
    <g id="Style-Guide" stroke="none" stroke-width="1" fill="none" fill-rule="evenodd">
        <g id="STYLE-GUIDE:-Icons" transform="translate(-758.000000, -523.000000)" fill="#000000">
            <g id="icons">
                <g transform="translate(170.000000, 122.000000)" id="Group">
                    <g transform="translate(586.000000, 398.000000)">
                        <g id="icons/diamond" transform="translate(2.000000, 3.000000)">
                            <polygon id="Page-1" points="0 7 7 14 13.999 7 7 0.001"></polygon>
                        </g>
                    </g>
                </g>
            </g>
        </g>
    </g>
</svg>