<?xml version="1.0" encoding="UTF-8"?>
<svg width="20px" height="20px" viewBox="0 0 20 20" version="1.1" xmlns="http://www.w3.org/2000/svg" xmlns:xlink="http://www.w3.org/1999/xlink">
    <!-- Generator: sketchtool 46.1 (44463) - http://www.bohemiancoding.com/sketch -->
    <title>3B20558B-5BD6-4549-8AAD-21454D0638DB</title>
    <desc>Created with sketchtool.</desc>
    <defs>
        <polygon id="path-1" points="19.994 9.99715 19.994 0.0002 0 0.0002 0 9.99715 0 19.9941 19.994 19.9941 19.994 9.99715"></polygon>
    </defs>
    <g id="Symbols" stroke="none" stroke-width="1" fill="none" fill-rule="evenodd">
        <g id="icons/compass/dk-gray">
            <g id="Page-1">
                <mask id="mask-2" fill="white">
                    <use xlink:href="#path-1"></use>
                </mask>
                <g id="Clip-2"></g>
                <path d="M9.284,10.9561 L10.323,14.2301 L13.837,6.4021 L6.01,9.9171 L9.284,10.9561 Z M9.997,0.0001 C4.485,0.0001 0,4.4851 0,9.9971 C0,15.5101 4.485,19.9941 9.997,19.9941 C15.51,19.9941 19.994,15.5101 19.994,9.9971 C19.994,4.4851 15.51,0.0001 9.997,0.0001 L9.997,0.0001 Z M9.997,1.5001 C14.69,1.5001 18.494,5.3041 18.494,9.9971 C18.494,14.6901 14.69,18.4941 9.997,18.4941 C5.304,18.4941 1.5,14.6901 1.5,9.9971 C1.5,5.3041 5.304,1.5001 9.997,1.5001 L9.997,1.5001 Z" id="Fill-1" fill="#757575" mask="url(#mask-2)"></path>
            </g>
        </g>
    </g>
</svg>