<svg xmlns="http://www.w3.org/2000/svg" width="20" height="9" viewBox="0 0 20 9">
    <path fill="#757575" fill-rule="evenodd" d="M19.102 0l-9.094 6.972L.912 0 0 1.191l10.008 7.67 10.007-7.67z"/>
</svg>
