<?xml version="1.0" encoding="UTF-8" standalone="no"?>
<svg width="22px" height="21px" viewBox="0 0 22 21" version="1.1" xmlns="http://www.w3.org/2000/svg" xmlns:xlink="http://www.w3.org/1999/xlink">
    <!-- Generator: sketchtool 45.2 (43514) - http://www.bohemiancoding.com/sketch -->
    <title>CE71C515-C35F-4A38-9174-E492D91FFDED</title>
    <desc>Created with sketchtool.</desc>
    <defs></defs>
    <g id="Symbols" stroke="none" stroke-width="1" fill="none" fill-rule="evenodd">
        <g id="icons/up-down-arrows" fill="#000000">
            <path d="M15.333,-0.0001 L9.5,5.8339 L10.561,6.8949 L14.583,2.8719 L14.583,20.5639 L16.084,20.5639 L16.084,2.8719 L20.107,6.8949 L21.167,5.8339 L15.333,-0.0001 Z M5.083,-0.0001 L5.083,17.6919 L1.06,13.6689 L0,14.7299 L5.834,20.5639 L11.667,14.7299 L10.606,13.6689 L6.583,17.6919 L6.583,-0.0001 L5.083,-0.0001 Z" id="Page-1"></path>
        </g>
    </g>
</svg>