<svg xmlns="http://www.w3.org/2000/svg" width="27" height="24" viewBox="0 0 27 24">
    <path fill="none" fill-rule="evenodd" stroke="#FFF" stroke-width="1.5" d="M21.014 13.997l1.31-7.738-7.447-2.477-13.848 8.32 6.138 10.215 13.847-8.32z"/>
</svg>
