{
  "code": "000010000",
  "name": null,
  "description": null,
  "expirationTime": null,
  "net": false,
  "totalPriceWithTax": {
    "currencyIso": "USD",
    "value": 160.0,
    "priceType": "BUY",
    "formattedValue": "$160.00",
    "minQuantity": null,
    "maxQuantity": null,
    "strikeOff": false
  },
  "totalPrice": {
    "currencyIso": "USD",
    "value": 160.0,
    "priceType": "BUY",
    "formattedValue": "$160.00",
    "minQuantity": null,
    "maxQuantity": null,
    "strikeOff": false
  },
  "totalTax": {
    "currencyIso": "USD",
    "value": 0.0,
    "priceType": "BUY",
    "formattedValue": "$0.00",
    "minQuantity": null,
    "maxQuantity": null,
    "strikeOff": false
  },
  "subTotal": {
    "currencyIso": "USD",
    "value": 160.0,
    "priceType": "BUY",
    "formattedValue": "$160.00",
    "minQuantity": null,
    "maxQuantity": null,
    "strikeOff": false
  },
  "subTotalWithoutQuoteDiscounts": null,
  "deliveryCost": null,
  "entries": null,
  "totalItems": 1,
  "deliveryMode": null,
  "deliveryAddress": null,
  "paymentInfo": null,
  "appliedOrderPromotions": [],
  "appliedProductPromotions": [],
  "productDiscounts": {
    "currencyIso": "USD",
    "value": 0.0,
    "priceType": "BUY",
    "formattedValue": "$0.00",
    "minQuantity": null,
    "maxQuantity": null,
    "strikeOff": false
  },
  "orderDiscounts": {
    "currencyIso": "USD",
    "value": 0.0,
    "priceType": "BUY",
    "formattedValue": "$0.00",
    "minQuantity": null,
    "maxQuantity": null,
    "strikeOff": false
  },
  "quoteDiscounts": {
    "currencyIso": "USD",
    "value": 0.0,
    "priceType": "BUY",
    "formattedValue": "$0.00",
    "minQuantity": null,
    "maxQuantity": null,
    "strikeOff": false
  },
  "quoteDiscountsRate": 0.0,
  "quoteDiscountsType": "PERCENT",
  "totalDiscounts": {
    "currencyIso": "USD",
    "value": 0.0,
    "priceType": "BUY",
    "formattedValue": "$0.00",
    "minQuantity": null,
    "maxQuantity": null,
    "strikeOff": false
  },
  "totalDiscountsWithQuoteDiscounts": {
    "currencyIso": "USD",
    "value": 0.0,
    "priceType": "BUY",
    "formattedValue": "$0.00",
    "minQuantity": null,
    "maxQuantity": null,
    "strikeOff": false
  },
  "subTotalWithDiscounts": {
    "currencyIso": "USD",
    "value": 160.0,
    "priceType": "BUY",
    "formattedValue": "$160.00",
    "minQuantity": null,
    "maxQuantity": null,
    "strikeOff": false
  },
  "site": "simon",
  "store": "simon",
  "guid": "8326e1e7-a820-47d2-9be8-984330fab26b",
  "calculated": true,
  "appliedVouchers": null,
  "user": null,
  "pickupOrderGroups": null,
  "deliveryOrderGroups": null,
  "pickupItemsQuantity": null,
  "deliveryItemsQuantity": null,
  "totalUnitCount": 2,
  "comments": null,
  "rootGroups": null,
  "spreedlyPaymentInfo": null,
  "retailerInfoData": [{
    "retailerName": null,
    "retailerId": "testShop1",
    "unitCountMessage": null,
    "estimatedSubtotal": null,
    "estimatedShipping": null,
    "estimatedTax": null,
    "estimatedTotal": null,
    "saving": null,
    "totalUnitCount": 2,
    "quantityLabel": null,
    "productDetails": [{
      "entryNumber": 0,
      "quantity": 2,
      "basePrice": {
        "currencyIso": "USD",
        "value": 80.0,
        "priceType": "BUY",
        "formattedValue": "$80.00",
        "minQuantity": null,
        "maxQuantity": null,
        "strikeOff": false
      },
      "totalPrice": {
        "currencyIso": "USD",
        "value": 160.0,
        "priceType": "BUY",
        "formattedValue": "$160.00",
        "minQuantity": null,
        "maxQuantity": null,
        "strikeOff": false
      },
      "product": {
        "code": "testSkuMVId1111",
        "name": "sdfhfsfdsfsfsfkjsfjs sdfsfsfs ",
        "url": "/Normalized-Color/Distressed-Skinny-Jeans/p/testSkuMVId1111",
        "description": null,
        "purchasable": true,
        "stock": {
          "stockLevelStatus": {
            "code": "abcd",
            "type": "StockLevelStatus"
          },
          "stockLevel": 1000,
          "stockThreshold": null
        },
        "futureStocks": null,
        "availableForPickup": false,
        "averageRating": null,
        "numberOfReviews": null,
        "summary": null,
        "manufacturer": null,
        "variantType": null,
        "price": null,
        "baseProduct": "testProductMVId1",
        "images": [{
          "imageType": "PRIMARY",
          "format": "zoom",
          "url": "//cdn6.bigcommerce.com/s-tl3oq/products/79/images/280/00096828-02__56046.1428431993.1000.1200.jpg",
          "altText": null,
          "galleryIndex": null,
          "width": null
        }, {
          "imageType": "PRIMARY",
          "format": "product",
          "url": "//cdn6.bigcommerce.com/s-tl3oq/products/79/images/280/00096828-02__56046.1428431993.1000.1200.jpg",
          "altText": null,
          "galleryIndex": null,
          "width": null
        }, {
          "imageType": "PRIMARY",
          "format": "thumbnail",
          "url": "//cdn6.bigcommerce.com/s-tl3oq/products/79/images/280/00096828-02__56046.1428431993.1000.1200.jpg",
          "altText": null,
          "galleryIndex": null,
          "width": null
        }, {
          "imageType": "PRIMARY",
          "format": "cartIcon",
          "url": "//cdn6.bigcommerce.com/s-tl3oq/products/79/images/280/00096828-02__56046.1428431993.1000.1200.jpg",
          "altText": null,
          "galleryIndex": null,
          "width": null
        }],
        "categories": [{
          "code": "medium",
          "name": "MEDIUM",
          "url": "/Normalized-Size/MEDIUM/c/medium",
          "description": null,
          "image": null,
          "parentCategoryName": "Normalized Size",
          "sequence": 4
        }, {
          "code": "red",
          "name": "Red",
          "url": "/Normalized-Color/Red/c/red",
          "description": null,
          "image": null,
          "parentCategoryName": "Normalized Color",
          "sequence": 10
        }],
        "reviews": null,
        "classifications": null,
        "potentialPromotions": null,
        "variantOptions": null,
        "baseOptions": [{
          "variantType": "GenericVariantProduct",
          "options": null,
          "selected": {
            "code": "testSkuMVId1111",
            "stock": {
              "stockLevelStatus": {
                "code": "inStock",
                "type": "StockLevelStatus"
              },
              "stockLevel": 1000,
              "stockThreshold": null
            },
            "url": "/Normalized-Color/Distressed-Skinny-Jeans/p/testSkuMVId1111",
            "priceData": {
              "currencyIso": "USD",
              "value": 80.0,
              "priceType": "BUY",
              "formattedValue": "$80.00",
              "minQuantity": null,
              "maxQuantity": null,
              "strikeOff": false
            },
            "variantOptionQualifiers": []
          }
        }],
        "volumePricesFlag": null,
        "volumePrices": null,
        "productReferences": null,
        "variantMatrix": null,
        "priceRange": null,
        "firstCategoryNameList": null,
        "multidimensional": null,
        "configurable": false,
        "keywords": null,
        "offersSummary": null,
        "genders": null,
        "productUrlMatch": null,
        "variantValues": {
          "color": "red",
          "size": "medium"
        }
      },
      "updateable": true,
      "deliveryMode": null,
      "deliveryPointOfService": null,
      "entries": null,
      "configurationInfos": [],
      "statusSummaryMap": {},
      "entryGroupNumbers": [],
      "comments": [],
      "url": null,
      "cancellableQty": 0,
      "returnableQty": 0,
      "cancelledItemsPrice": null,
      "returnedItemsPrice": null,
      "supportedActions": ["REMOVE"],
      "offerId": null,
      "shopId": null,
      "shopName": null,
      "saleValue": {
        "currencyIso": "USD",
        "value": 80.0,
        "priceType": "BUY",
        "formattedValue": "$80.00",
        "minQuantity": null,
        "maxQuantity": null,
        "strikeOff": false
      },
      "listValue": {
        "currencyIso": "USD",
        "value": 80.0,
        "priceType": "BUY",
        "formattedValue": "$80.00",
        "minQuantity": null,
        "maxQuantity": null,
        "strikeOff": false
      },
      "msrpValue": {
        "currencyIso": "USD",
        "value": 56.0,
        "priceType": "BUY",
        "formattedValue": "$56.00",
        "minQuantity": null,
        "maxQuantity": null,
        "strikeOff": false
      },
      "svStartDate": null,
      "svEndDate": null,
      "favorite": false,
      "savingsMessage": null,
      "promotionMessage": null
    }]
  },{
    "retailerName": null,
    "retailerId": "testShop1",
    "unitCountMessage": null,
    "estimatedSubtotal": null,
    "estimatedShipping": null,
    "estimatedTax": null,
    "estimatedTotal": null,
    "saving": null,
    "totalUnitCount": 2,
    "quantityLabel": null,
    "productDetails": [{
      "entryNumber": 0,
      "quantity": 2,
      "basePrice": {
        "currencyIso": "USD",
        "value": 80.0,
        "priceType": "BUY",
        "formattedValue": "$80.00",
        "minQuantity": null,
        "maxQuantity": null,
        "strikeOff": false
      },
      "totalPrice": {
        "currencyIso": "USD",
        "value": 160.0,
        "priceType": "BUY",
        "formattedValue": "$160.00",
        "minQuantity": null,
        "maxQuantity": null,
        "strikeOff": false
      },
      "product": {
        "code": "testSkuMVId1111",
        "name": "sdfhfsfdsfsfsfkjsfjs sdfsfsfs ",
        "url": "/Normalized-Color/Distressed-Skinny-Jeans/p/testSkuMVId1111",
        "description": null,
        "purchasable": true,
        "stock": {
          "stockLevelStatus": {
            "code": "abcd",
            "type": "StockLevelStatus"
          },
          "stockLevel": 1000,
          "stockThreshold": null
        },
        "futureStocks": null,
        "availableForPickup": false,
        "averageRating": null,
        "numberOfReviews": null,
        "summary": null,
        "manufacturer": null,
        "variantType": null,
        "price": null,
        "baseProduct": "testProductMVId1",
        "images": [{
          "imageType": "PRIMARY",
          "format": "zoom",
          "url": "//cdn6.bigcommerce.com/s-tl3oq/products/79/images/280/00096828-02__56046.1428431993.1000.1200.jpg",
          "altText": null,
          "galleryIndex": null,
          "width": null
        }, {
          "imageType": "PRIMARY",
          "format": "product",
          "url": "//cdn6.bigcommerce.com/s-tl3oq/products/79/images/280/00096828-02__56046.1428431993.1000.1200.jpg",
          "altText": null,
          "galleryIndex": null,
          "width": null
        }, {
          "imageType": "PRIMARY",
          "format": "thumbnail",
          "url": "//cdn6.bigcommerce.com/s-tl3oq/products/79/images/280/00096828-02__56046.1428431993.1000.1200.jpg",
          "altText": null,
          "galleryIndex": null,
          "width": null
        }, {
          "imageType": "PRIMARY",
          "format": "cartIcon",
          "url": "//cdn6.bigcommerce.com/s-tl3oq/products/79/images/280/00096828-02__56046.1428431993.1000.1200.jpg",
          "altText": null,
          "galleryIndex": null,
          "width": null
        }],
        "categories": [{
          "code": "medium",
          "name": "MEDIUM",
          "url": "/Normalized-Size/MEDIUM/c/medium",
          "description": null,
          "image": null,
          "parentCategoryName": "Normalized Size",
          "sequence": 4
        }, {
          "code": "red",
          "name": "Red",
          "url": "/Normalized-Color/Red/c/red",
          "description": null,
          "image": null,
          "parentCategoryName": "Normalized Color",
          "sequence": 10
        }],
        "reviews": null,
        "classifications": null,
        "potentialPromotions": null,
        "variantOptions": null,
        "baseOptions": [{
          "variantType": "GenericVariantProduct",
          "options": null,
          "selected": {
            "code": "testSkuMVId1111",
            "stock": {
              "stockLevelStatus": {
                "code": "inStock",
                "type": "StockLevelStatus"
              },
              "stockLevel": 1000,
              "stockThreshold": null
            },
            "url": "/Normalized-Color/Distressed-Skinny-Jeans/p/testSkuMVId1111",
            "priceData": {
              "currencyIso": "USD",
              "value": 80.0,
              "priceType": "BUY",
              "formattedValue": "$80.00",
              "minQuantity": null,
              "maxQuantity": null,
              "strikeOff": false
            },
            "variantOptionQualifiers": []
          }
        }],
        "volumePricesFlag": null,
        "volumePrices": null,
        "productReferences": null,
        "variantMatrix": null,
        "priceRange": null,
        "firstCategoryNameList": null,
        "multidimensional": null,
        "configurable": false,
        "keywords": null,
        "offersSummary": null,
        "genders": null,
        "productUrlMatch": null,
        "variantValues": {
          "color": "red",
          "size": "medium"
        }
      },
      "updateable": true,
      "deliveryMode": null,
      "deliveryPointOfService": null,
      "entries": null,
      "configurationInfos": [],
      "statusSummaryMap": {},
      "entryGroupNumbers": [],
      "comments": [],
      "url": null,
      "cancellableQty": 0,
      "returnableQty": 0,
      "cancelledItemsPrice": null,
      "returnedItemsPrice": null,
      "supportedActions": ["REMOVE"],
      "offerId": null,
      "shopId": null,
      "shopName": null,
      "saleValue": {
        "currencyIso": "USD",
        "value": 80.0,
        "priceType": "BUY",
        "formattedValue": "$80.00",
        "minQuantity": null,
        "maxQuantity": null,
        "strikeOff": false
      },
      "listValue": {
        "currencyIso": "USD",
        "value": 80.0,
        "priceType": "BUY",
        "formattedValue": "$80.00",
        "minQuantity": null,
        "maxQuantity": null,
        "strikeOff": false
      },
      "msrpValue": {
        "currencyIso": "USD",
        "value": 56.0,
        "priceType": "BUY",
        "formattedValue": "$56.00",
        "minQuantity": null,
        "maxQuantity": null,
        "strikeOff": false
      },
      "svStartDate": null,
      "svEndDate": null,
      "favorite": false,
      "savingsMessage": null,
      "promotionMessage": null
    }]
  }],
  "potentialOrderPromotions": [],
  "potentialProductPromotions": [],
  "saveTime": null,
  "savedBy": null,
  "quoteData": null,
  "importStatus": null,
  "unitCountMessage": null,
  "topBannerUrl": "/_ui/responsive/simon-theme/images/minibag-banner.jpg",
  "topBannerRedirectUrl": "#",
  "messageLabels": {
    "totalunitCountLabel": "Bag Total",
    "viewMyBagLabel": "View Shopping Bag",
    "topBannerLabel": "Your Shopping Bag",
    "emptybagLabel": null,
    "itemLabel": "ITEMS",
    "checkoutLabel": "CHECKOUT",
    "emptybagPromotionalLabel": null
  }
}