<?xml version="1.0" encoding="UTF-8"?>
<svg width="229px" height="98px" viewBox="0 0 229 98" version="1.1" xmlns="http://www.w3.org/2000/svg" xmlns:xlink="http://www.w3.org/1999/xlink">
    <!-- Generator: sketchtool 46.1 (44463) - http://www.bohemiancoding.com/sketch -->
    <title>DB74BEE0-80DC-4CF0-9C48-A2599BE77D96</title>
    <desc>Created with sketchtool.</desc>
    <defs>
        <polygon id="path-1" points="228.926 48.99515 228.926 97.99 0 97.99 0 48.99515 0 0.0003 228.926 0.0003 228.926 48.99515"></polygon>
    </defs>
    <g id="Symbols" stroke="none" stroke-width="1" fill="none" fill-rule="evenodd">
        <g id="logos/simon-premium-outlets-logo/stacked/white">
            <g id="simon-logo-–-stacked">
                <mask id="mask-2" fill="white">
                    <use xlink:href="#path-1"></use>
                </mask>
                <g id="Clip-2"></g>
                <path d="M228.926,94.3183 C228.926,92.5113 227.643,91.5863 224.957,91.2443 C222.761,90.9613 220.987,91.0943 219.807,90.6753 C219.18,90.4523 218.867,90.1243 218.867,89.6313 C218.867,88.7363 220.045,88.1683 222.285,88.1683 C223.987,88.1683 225.568,88.5713 227.181,89.3933 L228.27,88.1823 C226.702,87.1243 224.747,86.5863 222.418,86.5863 C218.91,86.5863 216.97,87.8563 216.97,89.8713 C216.97,91.9443 218.642,92.4673 221.97,92.6913 C225.15,92.9003 226.985,92.9003 226.985,94.4383 C226.985,95.6033 225.613,96.3483 223.046,96.3483 C221.075,96.3483 219.313,95.8563 217.583,94.7963 L216.597,96.0923 C218.164,97.3333 220.284,97.9153 223.031,97.9153 C226.867,97.9153 228.926,96.5873 228.926,94.3183 L228.926,94.3183 Z M209.187,88.4823 L214.352,88.4823 L214.352,86.8563 L202.231,86.8563 L202.231,88.4823 L207.397,88.4823 L207.397,97.6613 L209.187,97.6613 L209.187,88.4823 Z M213.447,48.0793 L214.014,48.0793 L214.014,43.9853 L213.242,43.9853 L211.764,47.3163 L210.294,43.9853 L209.513,43.9853 L209.513,48.0793 L210.081,48.0793 L210.081,44.8913 L211.493,48.0793 L212.022,48.0793 L213.447,44.8913 L213.447,48.0793 Z M206.482,45.0793 C206.482,44.6973 206.816,44.3983 207.284,44.3983 C207.867,44.3983 208.123,44.7973 208.167,45.0913 L208.685,44.9163 C208.59,44.4703 208.214,43.8983 207.273,43.8983 C206.506,43.8983 205.9,44.4773 205.9,45.1153 C205.9,45.7313 206.324,46.1093 206.916,46.2353 L207.51,46.3643 C207.925,46.4483 208.133,46.7033 208.133,46.9983 C208.133,47.3563 207.852,47.6533 207.273,47.6533 C206.642,47.6533 206.319,47.2293 206.274,46.7723 L205.722,46.9483 C205.798,47.5323 206.274,48.1653 207.284,48.1653 C208.167,48.1653 208.717,47.5873 208.717,46.9563 C208.717,46.3823 208.33,45.9543 207.636,45.8013 L207.016,45.6703 C206.663,45.5953 206.482,45.3733 206.482,45.0793 L206.482,45.0793 Z M195.352,72.3943 L201.22,72.3943 L201.22,43.9193 L196.504,43.9193 L196.504,67.2833 L174.749,43.9193 L168.889,43.9193 L168.889,72.3943 L173.612,72.3943 L173.612,49.0413 L195.352,72.3943 Z M161.635,58.1173 C161.635,53.5523 159.705,49.8023 155.853,46.8673 C152.493,44.2953 148.338,43.0113 143.385,43.0113 C138.452,43.0113 134.28,44.2953 130.873,46.8673 C126.991,49.8023 125.056,53.5523 125.056,58.1173 C125.056,62.7573 126.965,66.5233 130.794,69.4053 C134.153,71.9473 138.347,73.2213 143.385,73.2213 C148.365,73.2213 152.537,71.9633 155.892,69.4413 C159.721,66.5593 161.635,62.7863 161.635,58.1173 L161.635,58.1173 Z M156.718,58.1173 C156.718,61.3173 155.503,63.9123 153.079,65.9053 C150.655,67.8953 147.421,68.8943 143.385,68.8943 C139.318,68.8943 136.068,67.9033 133.628,65.9253 C131.188,63.9443 129.968,61.3393 129.968,58.1173 C129.968,54.9963 131.214,52.4203 133.707,50.3863 C136.199,48.3573 139.423,47.3393 143.385,47.3393 C147,47.3393 150.03,48.2313 152.469,50.0133 C155.3,52.0833 156.718,54.7833 156.718,58.1173 L156.718,58.1173 Z M130.01,29.4313 L150.242,14.7153 L130.01,0.0003 L96.93,24.0593 L84.082,14.7153 L96.93,5.3723 L106.088,12.0313 L109.78,9.3503 L96.93,0.0003 L76.698,14.7153 L96.93,29.4313 L130.01,5.3723 L142.856,14.7153 L130.01,24.0593 L120.862,17.4083 L117.174,20.0923 L130.01,29.4313 Z M70.255,97.6613 L72.045,97.6613 L72.045,86.8543 L70.255,86.8543 L70.255,97.6613 Z M65.047,72.3943 L69.769,72.3943 L69.769,43.9183 L65.047,43.9183 L65.047,72.3943 Z M62.727,97.6613 L64.518,97.6613 L64.518,86.8563 L62.295,86.8563 L57.084,93.3933 L51.891,86.8563 L49.666,86.8563 L49.666,97.6613 L51.457,97.6613 L51.457,88.8253 L51.502,88.8253 L57.071,95.8713 L62.682,88.8253 L62.727,88.8253 L62.727,97.6613 Z M31.7,51.2343 C31.7,50.0273 32.47,49.0833 34.021,48.4023 C35.566,47.7173 37.795,47.3743 40.709,47.3743 C45.086,47.3743 49.386,48.4523 53.608,50.6033 L56.483,47.4193 C52.334,44.6133 47.2,43.2073 41.061,43.2073 C36.5,43.2073 32.963,43.9853 30.458,45.5313 C27.958,47.0773 26.703,49.1883 26.703,51.8593 C26.703,54.4603 27.804,56.3073 30.009,57.4073 C31.894,58.3503 35.19,58.9823 39.882,59.2973 C45.178,59.6363 48.428,59.9643 49.636,60.2793 C51.941,60.8853 53.096,62.0893 53.096,63.8993 C53.096,65.4453 52.215,66.6653 50.463,67.5593 C48.624,68.4733 46.045,68.9343 42.712,68.9343 C37.572,68.9343 32.772,67.5663 28.316,64.8393 L25.718,68.2653 C29.759,71.4653 35.408,73.0643 42.671,73.0643 C47.681,73.0643 51.524,72.2363 54.201,70.5853 C56.873,68.9343 58.209,66.5983 58.209,63.5833 C58.209,61.2213 57.358,59.4033 55.655,58.1173 C53.949,56.8343 51.314,55.9533 47.747,55.4803 C46.489,55.3223 43.891,55.1143 39.961,54.8483 C37.284,54.6943 35.359,54.4053 34.18,53.9843 C32.526,53.4103 31.7,52.4933 31.7,51.2343 L31.7,51.2343 Z M24.875,86.8563 L16.352,86.8563 L16.352,97.6613 L18.143,97.6613 L18.143,93.5423 L23.605,93.5423 L26.532,97.6613 L28.605,97.6613 L25.711,93.4523 C27.323,93.1823 28.517,92.1693 28.517,90.2573 C28.517,88.1683 27.143,86.8563 24.875,86.8563 L24.875,86.8563 Z M26.68,90.2573 C26.68,91.3183 25.949,91.9153 24.607,91.9153 L18.143,91.9153 L18.143,88.4823 L24.441,88.4823 C25.949,88.4823 26.68,89.0653 26.68,90.2573 L26.68,90.2573 Z M12.166,90.2293 C12.166,88.1823 10.778,86.8563 8.568,86.8563 L0,86.8563 L0,97.6613 L1.793,97.6613 L1.793,93.5423 L8.225,93.5423 C10.792,93.5423 12.166,92.3633 12.166,90.2293 L12.166,90.2293 Z M10.329,90.2573 C10.329,91.3333 9.614,91.9153 8.256,91.9153 L1.793,91.9153 L1.793,88.4823 L8.136,88.4823 C9.598,88.4823 10.329,89.0653 10.329,90.2573 L10.329,90.2573 Z M44.42,86.8563 L33.524,86.8563 L33.524,97.6613 L44.839,97.6613 L44.839,96.0343 L35.314,96.0343 L35.314,92.8713 L41.644,92.8713 L41.644,91.2443 L35.314,91.2443 L35.314,88.4823 L44.42,88.4823 L44.42,86.8563 Z M79.506,86.8563 L77.714,86.8563 L77.714,94.1693 C77.714,96.3643 80.057,97.9903 83.848,97.9903 C87.624,97.9903 89.953,96.3783 89.953,94.1693 L89.953,86.8563 L88.163,86.8563 L88.163,93.7373 C88.163,95.4083 86.685,96.3483 83.848,96.3483 C80.998,96.3483 79.506,95.4083 79.506,93.7373 L79.506,86.8563 Z M97.841,86.8563 L95.617,86.8563 L95.617,97.6613 L97.408,97.6613 L97.408,88.8253 L97.453,88.8253 L103.021,95.8713 L108.633,88.8253 L108.678,88.8253 L108.678,97.6613 L110.468,97.6613 L110.468,86.8563 L108.245,86.8563 L103.034,93.3933 L97.841,86.8563 Z M98.168,67.6733 L112.958,49.1093 L113.076,49.1093 L113.076,72.3943 L117.796,72.3943 L117.796,43.9193 L111.914,43.9193 L98.206,61.1253 L84.556,43.9193 L78.655,43.9193 L78.655,72.3943 L83.38,72.3943 L83.38,49.1093 L83.496,49.1093 L98.168,67.6733 Z M122.249,92.2433 C122.249,94.0063 122.98,95.4373 124.427,96.5273 C125.607,97.4223 127.322,97.9753 129.203,97.9753 C131.083,97.9753 132.756,97.4383 133.95,96.5423 C135.398,95.4533 136.129,94.0063 136.129,92.2433 C136.129,90.5273 135.382,89.0803 133.935,87.9743 C132.741,87.0643 131.038,86.5113 129.203,86.5113 C127.352,86.5113 125.667,87.0643 124.457,87.9743 C122.995,89.0803 122.249,90.5123 122.249,92.2433 L122.249,92.2433 Z M124.114,92.2433 C124.114,89.8843 126.188,88.1533 129.203,88.1533 C130.562,88.1533 131.786,88.5413 132.651,89.1693 C133.725,89.9603 134.263,90.9913 134.263,92.2433 C134.263,94.6613 132.293,96.3333 129.203,96.3333 C126.098,96.3333 124.114,94.6753 124.114,92.2433 L124.114,92.2433 Z M143.017,86.8563 L141.225,86.8563 L141.225,94.1693 C141.225,96.3643 143.568,97.9903 147.359,97.9903 C151.135,97.9903 153.464,96.3783 153.464,94.1693 L153.464,86.8563 L151.673,86.8563 L151.673,93.7373 C151.673,95.4083 150.196,96.3483 147.359,96.3483 C144.509,96.3483 143.017,95.4083 143.017,93.7373 L143.017,86.8563 Z M169.519,86.8563 L157.398,86.8563 L157.398,88.4823 L162.563,88.4823 L162.563,97.6613 L164.354,97.6613 L164.354,88.4823 L169.519,88.4823 L169.519,86.8563 Z M175.318,86.8563 L173.528,86.8563 L173.528,97.6613 L183.661,97.6613 L183.661,96.0343 L175.318,96.0343 L175.318,86.8563 Z M198.493,86.8563 L187.597,86.8563 L187.597,97.6613 L198.91,97.6613 L198.91,96.0343 L189.388,96.0343 L189.388,92.8713 L195.716,92.8713 L195.716,91.2443 L189.388,91.2443 L189.388,88.4823 L198.493,88.4823 L198.493,86.8563 Z" id="Fill-1" fill="#FFFFFF" mask="url(#mask-2)"></path>
            </g>
        </g>
    </g>
</svg>