{
  "init": "Go",
  "initmethod": "update",
  "clearhmc": "true",
  "essential": "true",
  "localizetypes": "true",
  "basecommerce_create geocoding cron job": [
    "no"
  ],
  "simoncockpits_importCustomReports": [
    "yes"
  ],
  "mediaconversion_sampledata": [
    "false"
  ],
  "simoncore_accessRights": [
    "yes"
  ],
  "simoninitialdata_importCoreData": [
    "no"
  ],
  "simoninitialdata_importSampleData": [
    "no"
  ],
  "simoninitialdata_importSampleProduct": [
    "no"
  ],
  "simoninitialdata_activateSolrCronJobs": [
    "no"
  ],
  "filteredPatches": "true"
}