<svg xmlns="http://www.w3.org/2000/svg" width="40" height="40" viewBox="0 0 40 40">
    <g fill="none" fill-rule="evenodd">
        <path fill="#000" d="M5.142 11.141h29.844v18.697H5.142z"/>
        <path fill="#FFF" d="M13.476 28.273V27.22c0-.404-.248-.668-.656-.668a.702.702 0 0 0-.603.299c-.124-.193-.301-.299-.567-.299a.604.604 0 0 0-.514.246v-.21h-.337v1.686h.337v-.966c0-.299.177-.44.425-.44s.39.159.39.44v.966h.337v-.966c0-.299.177-.44.426-.44.248 0 .39.159.39.44v.966h.372zm5.533-1.67h-.62v-.509h-.338v.51h-.354v.299h.354v.79c0 .387.142.615.568.615.16 0 .337-.052.46-.123l-.106-.298a.588.588 0 0 1-.319.088c-.177 0-.266-.106-.266-.282v-.808h.62v-.281zm3.156-.052a.531.531 0 0 0-.46.246v-.21h-.338v1.686h.337v-.949c0-.28.142-.457.373-.457.07 0 .16.018.23.036l.107-.317a1.208 1.208 0 0 0-.249-.035zm-4.77.176c-.177-.123-.425-.176-.691-.176-.426 0-.692.193-.692.527 0 .281.195.44.567.492l.178.018c.195.035.319.105.319.193 0 .123-.142.211-.408.211a.941.941 0 0 1-.567-.176l-.178.264c.249.176.55.21.727.21.497 0 .763-.228.763-.544 0-.299-.213-.44-.585-.492l-.178-.018c-.16-.017-.301-.07-.301-.175 0-.123.142-.211.337-.211.213 0 .425.088.532.14l.177-.263zm5.143.703c0 .51.337.878.886.878.249 0 .426-.052.603-.193l-.177-.263a.72.72 0 0 1-.443.158c-.302 0-.532-.229-.532-.563 0-.334.23-.562.532-.562a.72.72 0 0 1 .443.158l.177-.263c-.177-.141-.354-.194-.603-.194-.532-.035-.886.334-.886.844zm-2.377-.879c-.496 0-.833.352-.833.879s.355.878.869.878c.248 0 .496-.07.692-.228l-.178-.246a.852.852 0 0 1-.496.176c-.23 0-.48-.14-.515-.44h1.26v-.14c0-.527-.32-.879-.799-.879zm-.017.316c.248 0 .425.159.443.422h-.922c.053-.246.213-.422.479-.422zm-4.593.563v-.844h-.337v.211c-.124-.158-.301-.246-.55-.246-.478 0-.833.37-.833.879 0 .51.355.878.833.878.249 0 .426-.087.55-.246v.211h.337v-.843zm-1.365 0c0-.317.195-.563.532-.563.319 0 .514.246.514.563 0 .334-.213.562-.514.562-.337.018-.532-.246-.532-.562zm13.104-.879a.531.531 0 0 0-.461.246v-.21h-.337v1.686h.337v-.949c0-.28.142-.457.372-.457.071 0 .16.018.23.036l.107-.317a1.208 1.208 0 0 0-.248-.035zm-1.312.879v-.844h-.337v.211c-.124-.158-.302-.246-.55-.246-.479 0-.833.37-.833.879 0 .51.354.878.833.878.248 0 .426-.087.55-.246v.211h.337v-.843zm-1.366 0c0-.317.195-.563.532-.563.32 0 .515.246.515.563 0 .334-.213.562-.515.562-.337.018-.532-.246-.532-.562zm4.788 0v-1.511h-.337v.878c-.124-.158-.301-.246-.55-.246-.478 0-.833.37-.833.879 0 .51.355.878.834.878.248 0 .425-.087.55-.246v.211h.336v-.843zm-1.365 0c0-.317.195-.563.532-.563.319 0 .514.246.514.563 0 .334-.213.562-.514.562-.337.018-.532-.246-.532-.562z"/>
        <path fill="#FF5F00" d="M17.006 13.794h6.153v9.946h-6.153z"/>
        <path fill="#EB001B" d="M17.626 18.767c0-2.021.957-3.813 2.43-4.973a6.381 6.381 0 0 0-3.938-1.353c-3.528 0-6.383 2.829-6.383 6.326 0 3.497 2.855 6.326 6.383 6.326 1.49 0 2.855-.51 3.937-1.353a6.322 6.322 0 0 1-2.43-4.973z"/>
        <path fill="#F79E1B" d="M30.393 18.767c0 3.497-2.855 6.326-6.384 6.326-1.49 0-2.854-.51-3.936-1.353a6.27 6.27 0 0 0 2.43-4.973c0-2.021-.958-3.813-2.43-4.973a6.381 6.381 0 0 1 3.936-1.353c3.53 0 6.384 2.829 6.384 6.326z"/>
    </g>
</svg>
